[
    {
        "transactionName": "STRA_UAT_01_Login",
        "rawStartTime": 1575975338176,
        "rawEndTime": 1575975352307
    },
    {
        "transactionName": "STRA_UAT_Authenticated_02_Allergies",
        "rawStartTime": 1575975352319,
        "rawEndTime": 1575975354818
    },
    {
        "transactionName": "STRA_UAT_Authenticated_03_CurrentHealthIssues",
        "rawStartTime": 1575975357830,
        "rawEndTime": 1575975358607
    },
    {
        "transactionName": "STRA_UAT_Authenticated_04_Immunizations",
        "rawStartTime": 1575975361610,
        "rawEndTime": 1575975362972
    },
    {
        "transactionName": "STRA_UAT_Authenticated_05_PatientMedications",
        "rawStartTime": 1575975365978,
        "rawEndTime": 1575975367752
    },
    {
        "transactionName": "STRA_UAT_Authenticated_06_MedicalRecord",
        "rawStartTime": 1575975370765,
        "rawEndTime": 1575975372904
    },
    {
        "transactionName": "STRA_UAT_Authenticated_07_HealthSummary",
        "rawStartTime": 1575975375907,
        "rawEndTime": 1575975376042
    },
    {
        "transactionName": "STRA_UAT_Authenticated_08_PreventiveCare",
        "rawStartTime": 1575975379055,
        "rawEndTime": 1575975380025
    },
    {
        "transactionName": "STRA_UAT_Authenticated_09_PCP",
        "rawStartTime": 1575975383038,
        "rawEndTime": 1575975384085
    },
    {
        "transactionName": "STRA_UAT_Authenticated_10_Providers",
        "rawStartTime": 1575975387092,
        "rawEndTime": 1575975388360
    },
    {
        "transactionName": "STRA_UAT_Authenticated_11_ProviderDetails",
        "rawStartTime": 1575975391374,
        "rawEndTime": 1575975391848
    },
    {
        "transactionName": "STRA_UAT_Authenticated_12_OpenSlots",
        "rawStartTime": 1575975394851,
        "rawEndTime": 1575975400596
    },
    {
        "transactionName": "STRA_UAT_Authenticated_13_ActiveAppoinments",
        "rawStartTime": 1575975400602,
        "rawEndTime": 1575975401036
    },
    {
        "transactionName": "STRA_UAT_Authenticated_14_ProviderVisitType",
        "rawStartTime": 1575975404048,
        "rawEndTime": 1575975404391
    },
    {
        "transactionName": "STRA_UAT_Authenticated_15_VisitTypeEstablished",
        "rawStartTime": 1575975407397,
        "rawEndTime": 1575975407727
    },
    {
        "transactionName": "STRA_UAT_Authenticated_16_VisitTypeNew",
        "rawStartTime": 1575975410731,
        "rawEndTime": 1575975411006
    },
    {
        "transactionName": "STRA_UAT_Authenticated_17_VisitTypeVirtualCare",
        "rawStartTime": 1575975414009,
        "rawEndTime": 1575975414265
    },
    {
        "transactionName": "STRA_UAT_Authenticated_18_VisitTypeSameday",
        "rawStartTime": 1575975417271,
        "rawEndTime": 1575975417473
    },
    {
        "transactionName": "STRA_UAT_Authenticated_19_LocationType",
        "rawStartTime": 1575975420482,
        "rawEndTime": 1575975420766
    },
    {
        "transactionName": "STRA_UAT_Authenticated_20_FindFacility",
        "rawStartTime": 1575975423771,
        "rawEndTime": 1575975424238
    },
    {
        "transactionName": "STRA_UAT_Authenticated_21_FacilityDetails",
        "rawStartTime": 1575975427253,
        "rawEndTime": 1575975428085
    },
    {
        "transactionName": "STRA_UAT_Authenticated_22_ReviewComment",
        "rawStartTime": 1575975431088,
        "rawEndTime": 1575975431365
    },
    {
        "transactionName": "STRA_UAT_Authenticated_23_ProviderImage",
        "rawStartTime": 1575975434371,
        "rawEndTime": 1575975434581
    },
    {
        "transactionName": "STRA_UAT_Authenticated_24_OrderStatus",
        "rawStartTime": 1575975434587,
        "rawEndTime": 1575975434943
    },
    {
        "transactionName": "STRA_UAT_Authenticated_25_HealthTracks",
        "rawStartTime": 1575975437952,
        "rawEndTime": 1575975438598
    },
    {
        "transactionName": "STRA_UAT_Authenticated_26_HealthTracksDetails",
        "rawStartTime": 1575975441601,
        "rawEndTime": 1575975442694
    },
    {
        "transactionName": "STRA_UAT_Authenticated_27_LogTypes",
        "rawStartTime": 1575975445707,
        "rawEndTime": 1575975445939
    },
    {
        "transactionName": "STRA_UAT_Authenticated_28_LogDetails",
        "rawStartTime": 1575975448951,
        "rawEndTime": 1575975449240
    },
    {
        "transactionName": "STRA_UAT_Authenticated_29_SendMessage",
        "rawStartTime": 1575975452245,
        "rawEndTime": 1575975452973
    },
    {
        "transactionName": "STRA_UAT_Authenticated_30_SendMessageDetail",
        "rawStartTime": 1575975455987,
        "rawEndTime": 1575975456713
    },
    {
        "transactionName": "STRA_UAT_Authenticated_31_ContactDoctor",
        "rawStartTime": 1575975456720,
        "rawEndTime": 1575975462518
    },
    {
        "transactionName": "STRA_UAT_Authenticated_32_HealthTrackGraph",
        "rawStartTime": 1575975465525,
        "rawEndTime": 1575975466731
    },
    {
        "transactionName": "STRA_UAT_Authenticated_33_Message",
        "rawStartTime": 1575975469740,
        "rawEndTime": 1575975470273
    },
    {
        "transactionName": "STRA_UAT_Authenticated_34_MessageDetails",
        "rawStartTime": 1575975473279,
        "rawEndTime": 1575975473798
    },
    {
        "transactionName": "STRA_UAT_Authenticated_35_WalletCard",
        "rawStartTime": 1575975476800,
        "rawEndTime": 1575975486697
    },
    {
        "transactionName": "STRA_UAT_Authenticated_36_OrderExpired",
        "rawStartTime": 1575975489699,
        "rawEndTime": 1575975490663
    },
    {
        "transactionName": "STRA_UAT_Authenticated_37_ContactCustomerService",
        "rawStartTime": 1575975493676,
        "rawEndTime": 1575975493976
    },
    {
        "transactionName": "STRA_UAT_Authenticated_38_NewMessage",
        "rawStartTime": 1575975496988,
        "rawEndTime": 1575975497779
    },
    {
        "transactionName": "STRA_UAT_39_LucySSO",
        "rawStartTime": 1575975500781,
        "rawEndTime": 1575975505934
    },
    {
        "transactionName": "STRA_UAT_Authenticated_40_WalletCardinfo",
        "rawStartTime": 1575975505946,
        "rawEndTime": 1575975506812
    },
    {
        "transactionName": "STRA_UAT_Authenticated_41_TestType",
        "rawStartTime": 1575975509814,
        "rawEndTime": 1575975510151
    },
    {
        "transactionName": "STRA_UAT_Authenticated_42_UpdateEmail",
        "rawStartTime": 1575975513163,
        "rawEndTime": 1575975516136
    },
    {
        "transactionName": "STRA_UAT_Authenticated_43_UpdateQuestions",
        "rawStartTime": 1575975519138,
        "rawEndTime": 1575975519682
    },
    {
        "transactionName": "STRA_UAT_44_FPHTriEmail",
        "rawStartTime": 1575975522688,
        "rawEndTime": 1575975524691
    },
    {
        "transactionName": "STRA_UAT_45_FogUNameVerifyUser",
        "rawStartTime": 1575975527693,
        "rawEndTime": 1575975527903
    },
    {
        "transactionName": "STRA_UAT_46_FogUNStepUp",
        "rawStartTime": 1575975530907,
        "rawEndTime": 1575975531084
    },
    {
        "transactionName": "STRA_UAT_47_GetAllQuestions",
        "rawStartTime": 1575975534087,
        "rawEndTime": 1575975534249
    },
    {
        "transactionName": "STRA_UAT_Authenticated_48_GetProfile",
        "rawStartTime": 1575975537252,
        "rawEndTime": 1575975539974
    },
    {
        "transactionName": "STRA_UAT_Authenticated_49_RequestForSSOToken",
        "rawStartTime": 1575975542976,
        "rawEndTime": 1575975543177
    },
    {
        "transactionName": "STRA_UAT_Authenticated_50_CheckPatientexisttrueW",
        "rawStartTime": 1575975546184,
        "rawEndTime": 1575975546380
    },
    {
        "transactionName": "STRA_UAT_Authenticated_51_ImageVisitTypeW",
        "rawStartTime": 1575975549385,
        "rawEndTime": 1575975549594
    },
    {
        "transactionName": "STRA_UAT_Authenticated_52_ImagingQuestionnaireW",
        "rawStartTime": 1575975552606,
        "rawEndTime": 1575975552883
    },
    {
        "transactionName": "STRA_UAT_Authenticated_53_CountryW",
        "rawStartTime": 1575975555890,
        "rawEndTime": 1575975556618
    },
    {
        "transactionName": "STRA_UAT_Authenticated_54_CountyW",
        "rawStartTime": 1575975559620,
        "rawEndTime": 1575975560800
    },
    {
        "transactionName": "STRA_UAT_Authenticated_55_StatesW",
        "rawStartTime": 1575975563811,
        "rawEndTime": 1575975564286
    },
    {
        "transactionName": "STRA_UAT_Authenticated_56_GetSessionDevicess",
        "rawStartTime": 1575975567289,
        "rawEndTime": 1575975567635
    },
    {
        "transactionName": "STRA_UAT_Authenticated_57_PostSessionDevicess",
        "rawStartTime": 1575975570638,
        "rawEndTime": 1575975571091
    },
    {
        "transactionName": "STRA_UAT_Authenticated_58_TestResults",
        "rawStartTime": 1575975571095,
        "rawEndTime": 1575975571602
    },
    {
        "transactionName": "STRA_UAT_Authenticated_59_TestResultsById",
        "rawStartTime": 1575975574606,
        "rawEndTime": 1575975575482
    },
    {
        "transactionName": "STRA_UAT_Authenticated_60_TestResultsPAST",
        "rawStartTime": 1575975578485,
        "rawEndTime": 1575975578613
    },
    {
        "transactionName": "STRA_UAT_61_Beacon",
        "rawStartTime": 1575975581620,
        "rawEndTime": 1575975582245
    },
    {
        "transactionName": "STRA_UAT_Authenticated_62_EcheckinPendingAppointments",
        "rawStartTime": 1575975585248,
        "rawEndTime": 1575975585631
    },
    {
        "transactionName": "STRA_UAT_Authenticated_63_IconBadge",
        "rawStartTime": 1575975588633,
        "rawEndTime": 1575975592813
    },
    {
        "transactionName": "STRA_UAT_64_APPUPGRADE",
        "rawStartTime": 1575975592815,
        "rawEndTime": 1575975592920
    },
    {
        "transactionName": "STRA_UAT_65_FACILITIES",
        "rawStartTime": 1575975592927,
        "rawEndTime": 1575975593134
    },
    {
        "transactionName": "STRA_UAT_66_FacilityDetails",
        "rawStartTime": 1575975593136,
        "rawEndTime": 1575975593595
    },
    {
        "transactionName": "STRA_UAT_67_CampusMapFACILITIES",
        "rawStartTime": 1575975593608,
        "rawEndTime": 1575975593706
    },
    {
        "transactionName": "STRA_UAT_68_Languages",
        "rawStartTime": 1575975593712,
        "rawEndTime": 1575975593994
    },
    {
        "transactionName": "STRA_UAT_69_MdliveStates",
        "rawStartTime": 1575975593997,
        "rawEndTime": 1575975594063
    },
    {
        "transactionName": "STRA_UAT_70_ProviderImage",
        "rawStartTime": 1575975594069,
        "rawEndTime": 1575975594272
    },
    {
        "transactionName": "STRA_UAT_71_GetVisitReason",
        "rawStartTime": 1575975594284,
        "rawEndTime": 1575975599469
    },
    {
        "transactionName": "STRA_UAT_72_GetSpecialties",
        "rawStartTime": 1575975599471,
        "rawEndTime": 1575975599719
    },
    {
        "transactionName": "STRA_UAT_73_GetReviewComments",
        "rawStartTime": 1575975599721,
        "rawEndTime": 1575975599914
    },
    {
        "transactionName": "STRA_UAT_74_GetListQuestions",
        "rawStartTime": 1575975599921,
        "rawEndTime": 1575975600113
    },
    {
        "transactionName": "STRA_UAT_75_ValidateUserID",
        "rawStartTime": 1575975600115,
        "rawEndTime": 1575975600419
    },
    {
        "transactionName": "STRA_UAT_76_ValidateUserName",
        "rawStartTime": 1575975600422,
        "rawEndTime": 1575975600563
    },
    {
        "transactionName": "STRA_UAT_77_GetLocationType",
        "rawStartTime": 1575975600566,
        "rawEndTime": 1575975600657
    },
    {
        "transactionName": "STRA_UAT_78_GetProviderDetailsOnVtypeAndProviders",
        "rawStartTime": 1575975600659,
        "rawEndTime": 1575975601050
    },
    {
        "transactionName": "STRA_UAT_79_GetProviders",
        "rawStartTime": 1575975601056,
        "rawEndTime": 1575975601861
    },
    {
        "transactionName": "STRA_UAT_Authenticated_80_retriveAppointmentDetail",
        "rawStartTime": 1575975601863,
        "rawEndTime": 1575975602211
    },
    {
        "transactionName": "STRA_UAT_Authenticated_81_GetSSOTOKEN",
        "rawStartTime": 1575975602213,
        "rawEndTime": 1575975602422
    },
    {
        "transactionName": "STRA_UAT_Authenticated_82_GetVirtualCare",
        "rawStartTime": 1575975602425,
        "rawEndTime": 1575975602573
    },
    {
        "transactionName": "STRA_UAT_Authenticated_83_GetImagingFacilities",
        "rawStartTime": 1575975602576,
        "rawEndTime": 1575975603245
    },
    {
        "transactionName": "STRA_UAT_Authenticated_84_GetListOfLanguages",
        "rawStartTime": 1575975603251,
        "rawEndTime": 1575975603499
    },
    {
        "transactionName": "STRA_UAT_Authenticated_85_SSOTokForMdlive",
        "rawStartTime": 1575975603506,
        "rawEndTime": 1575975604745
    },
    {
        "transactionName": "STRA_UAT_Authenticated_86_OUInsuranceList",
        "rawStartTime": 1575975604747,
        "rawEndTime": 1575975604967
    },
    {
        "transactionName": "STRA_UAT_Authenticated_87_PersonInsurancesList",
        "rawStartTime": 1575975604969,
        "rawEndTime": 1575975605215
    },
    {
        "transactionName": "STRA_UAT_Authenticated_88_AlertsCount",
        "rawStartTime": 1575975605217,
        "rawEndTime": 1575975605704
    },
    {
        "transactionName": "STRA_UAT_Authenticated_89_PatientMedHistory",
        "rawStartTime": 1575975605710,
        "rawEndTime": 1575975605965
    },
    {
        "transactionName": "STRA_UAT_Authenticated_90_PatientSurgeHistory",
        "rawStartTime": 1575975605967,
        "rawEndTime": 1575975606191
    },
    {
        "transactionName": "STRA_UAT_Authenticated_91_PatientFamilyHistory",
        "rawStartTime": 1575975606203,
        "rawEndTime": 1575975606520
    },
    {
        "transactionName": "STRA_UAT_Authenticated_92_PatientGenderInfo",
        "rawStartTime": 1575975606522,
        "rawEndTime": 1575975606718
    },
    {
        "transactionName": "STRA_UAT_Authenticated_93_GetLanguages",
        "rawStartTime": 1575975606720,
        "rawEndTime": 1575975607043
    },
    {
        "transactionName": "STRA_UAT_Authenticated_94_GetOpenSlotsForImagingAppointmentSlotsrollUp",
        "rawStartTime": 1575975607045,
        "rawEndTime": 1575975609309
    },
    {
        "transactionName": "STRA_UAT_Authenticated_95_GetNameOfProviders",
        "rawStartTime": 1575975609315,
        "rawEndTime": 1575975609671
    },
    {
        "transactionName": "STRA_UAT_Authenticated_96_Logout",
        "rawStartTime": 1575975609673,
        "rawEndTime": 1575975610497
    }
]