"{\n"
""visitTypeId": "15800",\n"
""visitType": "External",\n"
""departmentId": "20316002",\n"
""departmentType": "External",\n"
""startDate": "2020-01-01",\n"
""endDate": "2020-01-02",\n"
""showNextAvailableSlots": true,\n"
""distance": 50\n"
"}"
