"{\n"
""auth": {\n"
""first_name": "string",\n"
""last_name": "string",\n"
""gender": "string",\n"
""birthdate": "string",\n"
""subscriber_id": "string",\n"
""member_id": "string",\n"
""phone": "string",\n"
""email": "string",\n"
""address1": "string",\n"
""city": "string",\n"
""state": "string",\n"
""zip": "string",\n"
""relationship": "self",\n"
""primary_first_name": "string",\n"
""primary_last_name": "string",\n"
""primary_gender": "string",\n"
""primary_birthdate": "string",\n"
""primary_subscriber_id": "string",\n"
""primary_member_id": "string",\n"
""primary_address1": "string",\n"
""primary_address2": "string",\n"
""primary_city": "string",\n"
""primary_state": "string",\n"
""primary_zip": "string"\n"
"},\n"
""org": {\n"
""ou": "1"\n"
"},\n"
""api": {\n"
""api_key": "string",\n"
""password": "string"\n"
"}\n"
"}"
